APD report
…
The table below gives further detail on the variables with the greatest proportion of missing data. Many of these are simply not useful. Many are extremely useful, but missed for various reasons.

## # A tibble: 163 x 3
##    variable            n_miss pct_miss
##    <chr>                <int>    <dbl>
##  1 EthnicityOther        1059    100  
##  2 CABGGraft             1059    100  
##  3 CABGRedo              1059    100  
##  4 PT_identifier         1059    100  
##  5 ICU_identifier        1059    100  
##  6 HOSP_identifier       1058     99.9
##  7 AMIThromboTher        1045     98.7
##  8 ReadmissionLagHours   1020     96.3
##  9 TransferredFrom        951     89.8
## 10 TransferredTo          889     83.9
## # ... with 153 more rows
…
